…
  # show station information and link
data(station_links)
station_links %>%
  dplyr::mutate("station" := stringi::stri_unescape_unicode(station))
#> # A tibble: 3,444 × 3
#>    no    station                                                         url    
#>    <chr> <chr>                                                           <chr>  
#>  1 1     アインセフラ - アルジェリア   緯度：32.77°N   経度：0.60°W   …  https:…
#>  2 2     アドラル - アルジェリア   緯度：27.88°N   経度：0.18°W   高度…  https:…
#>  3 3     アルジェ - アルジェリア   緯度：36.77°N   経度：3.10°E   高度…  https:…
#>  4 4     アンナバ - アルジェリア   緯度：36.83°N   経度：7.82°E   高度…  https:…
#>  5 5     イナメナス - アルジェリア   緯度：28.05°N   経度：9.63°E   高…  https:…
#>  6 6     イリジ - アルジェリア   緯度：26.50°N   経度：8.42°E   高度：5… https:…
#>  7 7     インゲザム - アルジェリア   緯度：19.57°N   経度：5.77°E   高…  https:…
#>  8 8     インサラー - アルジェリア   緯度：27.23°N   経度：2.50°E   高…  https:…
#>  9 9     ウェド - アルジェリア   緯度：33.50°N   経度：6.78°E   高度：6… https:…
#> 10 10    ウームエルブワギー - アルジェリア   緯度：35.87°N   経度：7.12… https:…
#> # … with 3,434 more rows

  # show climate data
data(world_climate)
world_climate %>%
  dplyr::mutate_if(is.character, stringi::stri_unescape_unicode)
#> # A tibble: 41,328 × 11
#>    no    month temperature precipi…¹ station country latit…² NS    longi…³ WE   
#>    <chr> <chr> <chr>       <chr>     <chr>   <chr>   <chr>   <chr> <chr>   <chr>
#>  1 1     1     7.1         14.9      アイン… アルジ… 32.77   N     0.6     W    
#>  2 1     2     9.2         11.2      アイン… アルジ… 32.77   N     0.6     W    
#>  3 1     3     12.9        15.9      アイン… アルジ… 32.77   N     0.6     W    
#>  4 1     4     16.8        16.9      アイン… アルジ… 32.77   N     0.6     W    
#>  5 1     5     21.5        15        アイン… アルジ… 32.77   N     0.6     W    
#>  6 1     6     26.7        6.9       アイン… アルジ… 32.77   N     0.6     W    
#>  7 1     7     31          4.1       アイン… アルジ… 32.77   N     0.6     W    
#>  8 1     8     29.5        13.5      アイン… アルジ… 32.77   N     0.6     W    
#>  9 1     9     24.4        21        アイン… アルジ… 32.77   N     0.6     W    
#> 10 1     10    18.6        25.8      アイン… アルジ… 32.77   N     0.6     W    
#> # … with 41,318 more rows, 1 more variable: altitude <chr>, and abbreviated
#> #   variable names ¹​precipitation, ²​latitude, ³​longitude
…
