…
  # 観測地点とそのリンクのデータ
data(station_links)
station_links %>%
  dplyr::mutate("station" := stringi::stri_unescape_unicode(station))
#> # A tibble: 3,444 × 3
#>    no    station                                                         url    
#>    <chr> <chr>                                                           <chr>  
#>  1 1     アインセフラ - アルジェリア   緯度：32.77°N   経度：0.60°W   …  https:…
#>  2 2     アドラル - アルジェリア   緯度：27.88°N   経度：0.18°W   高度…  https:…
#>  3 3     アルジェ - アルジェリア   緯度：36.77°N   経度：3.10°E   高度…  https:…
#>  4 4     アンナバ - アルジェリア   緯度：36.83°N   経度：7.82°E   高度…  https:…
#>  5 5     イナメナス - アルジェリア   緯度：28.05°N   経度：9.63°E   高…  https:…
#>  6 6     イリジ - アルジェリア   緯度：26.50°N   経度：8.42°E   高度：5… https:…
#>  7 7     インゲザム - アルジェリア   緯度：19.57°N   経度：5.77°E   高…  https:…
#>  8 8     インサラー - アルジェリア   緯度：27.23°N   経度：2.50°E   高…  https:…
#>  9 9     ウェド - アルジェリア   緯度：33.50°N   経度：6.78°E   高度：6… https:…
#> 10 10    ウームエルブワギー - アルジェリア   緯度：35.87°N   経度：7.12… https:…
#> # … with 3,434 more rows

  # 観測データ(日本，世界)
data(japan_climate)
japan_climate %>%
  dplyr::mutate_if(is.character, stringi::stri_unescape_unicode)
#> # A tibble: 3,768 × 14
#>       no station month temperat…¹ preci…² snowf…³ insol…⁴ country period altit…⁵
#>    <dbl> <chr>   <dbl>      <dbl>   <dbl>   <dbl>   <dbl> <chr>   <chr>    <dbl>
#>  1 47401 稚内        1       -4.3    84.6     129    40.6 日本    1991-…     2.8
#>  2 47401 稚内        2       -4.3    60.6     105    74.7 日本    1991-…     2.8
#>  3 47401 稚内        3       -0.6    55.1      68   138.  日本    1991-…     2.8
#>  4 47401 稚内        4        4.5    50.3       9   174.  日本    1991-…     2.8
#>  5 47401 稚内        5        9.1    68.1       0   182.  日本    1991-…     2.8
#>  6 47401 稚内        6       13      65.8      NA   155.  日本    1991-…     2.8
#>  7 47401 稚内        7       17.2   101.       NA   143.  日本    1991-…     2.8
#>  8 47401 稚内        8       19.5   123.       NA   151.  日本    1991-…     2.8
#>  9 47401 稚内        9       17.2   137.       NA   172.  日本    1991-…     2.8
#> 10 47401 稚内       10       11.3   130.        1   135.  日本    1991-…     2.8
#> # … with 3,758 more rows, 4 more variables: latitude <dbl>, longitude <dbl>,
#> #   NS <chr>, WE <chr>, and abbreviated variable names ¹​temperature,
#> #   ²​precipitation, ³​snowfall, ⁴​insolation, ⁵​altitude

data(world_climate)
world_climate %>%
  dplyr::mutate_if(is.character, stringi::stri_unescape_unicode)
#> # A tibble: 41,328 × 11
#>       no month temperature precipi…¹ station country latit…² NS    longi…³ WE   
#>    <dbl> <dbl>       <dbl>     <dbl> <chr>   <chr>     <dbl> <chr>   <dbl> <chr>
#>  1     1     1         7.1      14.9 アイン… アルジ…    32.8 N         0.6 W    
#>  2     1     2         9.2      11.2 アイン… アルジ…    32.8 N         0.6 W    
#>  3     1     3        12.9      15.9 アイン… アルジ…    32.8 N         0.6 W    
#>  4     1     4        16.8      16.9 アイン… アルジ…    32.8 N         0.6 W    
#>  5     1     5        21.5      15   アイン… アルジ…    32.8 N         0.6 W    
#>  6     1     6        26.7       6.9 アイン… アルジ…    32.8 N         0.6 W    
#>  7     1     7        31         4.1 アイン… アルジ…    32.8 N         0.6 W    
#>  8     1     8        29.5      13.5 アイン… アルジ…    32.8 N         0.6 W    
#>  9     1     9        24.4      21   アイン… アルジ…    32.8 N         0.6 W    
#> 10     1    10        18.6      25.8 アイン… アルジ…    32.8 N         0.6 W    
#> # … with 41,318 more rows, 1 more variable: altitude <dbl>, and abbreviated
#> #   variable names ¹​precipitation, ²​latitude, ³​longitude
…
